{
  "name": "dpenkin",
  "emailAddress": "dpenkin@atlassian.com",
  "id": 59458,
  "displayName": "Daniil Penkin",
  "active": true,
  "slug": "dpenkin",
  "type": "NORMAL",
  "links": {
    "self": [
      {
        "href": "https://stash.dev.internal.atlassian.com/users/dpenkin"
      }
    ]
  }
}